[
  {
    "model": "admin.logentry",
    "pk": 1,
    "fields": {
      "action_time": "2021-11-25T18:32:17.441Z",
      "user": 1,
      "content_type": 7,
      "object_id": "1",
      "object_repr": "Python",
      "action_flag": 1,
      "change_message": "[{\"added\": {}}]"
    }
  },
  {
    "model": "admin.logentry",
    "pk": 2,
    "fields": {
      "action_time": "2021-11-25T18:32:32.245Z",
      "user": 1,
      "content_type": 9,
      "object_id": "1",
      "object_repr": "What is Python?",
      "action_flag": 1,
      "change_message": "[{\"added\": {}}]"
    }
  },
  {
    "model": "admin.logentry",
    "pk": 3,
    "fields": {
      "action_time": "2021-11-25T18:34:00.133Z",
      "user": 1,
      "content_type": 9,
      "object_id": "2",
      "object_repr": "Difference between \"==\" and \"is\"?",
      "action_flag": 1,
      "change_message": "[{\"added\": {}}]"
    }
  },
  {
    "model": "admin.logentry",
    "pk": 4,
    "fields": {
      "action_time": "2021-11-25T18:34:18.895Z",
      "user": 1,
      "content_type": 10,
      "object_id": "1",
      "object_repr": "LMS system",
      "action_flag": 1,
      "change_message": "[{\"added\": {}}]"
    }
  },
  {
    "model": "admin.logentry",
    "pk": 5,
    "fields": {
      "action_time": "2021-11-25T18:34:35.211Z",
      "user": 1,
      "content_type": 10,
      "object_id": "2",
      "object_repr": "Programing language",
      "action_flag": 1,
      "change_message": "[{\"added\": {}}]"
    }
  },
  {
    "model": "admin.logentry",
    "pk": 6,
    "fields": {
      "action_time": "2021-11-25T18:34:43.401Z",
      "user": 1,
      "content_type": 10,
      "object_id": "3",
      "object_repr": "Types of vars",
      "action_flag": 1,
      "change_message": "[{\"added\": {}}]"
    }
  },
  {
    "model": "admin.logentry",
    "pk": 7,
    "fields": {
      "action_time": "2021-11-25T18:34:53.014Z",
      "user": 1,
      "content_type": 10,
      "object_id": "4",
      "object_repr": "I dont know",
      "action_flag": 1,
      "change_message": "[{\"added\": {}}]"
    }
  },
  {
    "model": "admin.logentry",
    "pk": 8,
    "fields": {
      "action_time": "2021-11-25T18:35:07.178Z",
      "user": 1,
      "content_type": 10,
      "object_id": "5",
      "object_repr": "The same",
      "action_flag": 1,
      "change_message": "[{\"added\": {}}]"
    }
  },
  {
    "model": "admin.logentry",
    "pk": 9,
    "fields": {
      "action_time": "2021-11-25T18:35:40.108Z",
      "user": 1,
      "content_type": 10,
      "object_id": "6",
      "object_repr": "Can`t compare",
      "action_flag": 1,
      "change_message": "[{\"added\": {}}]"
    }
  },
  {
    "model": "admin.logentry",
    "pk": 10,
    "fields": {
      "action_time": "2021-11-25T18:36:23.083Z",
      "user": 1,
      "content_type": 10,
      "object_id": "7",
      "object_repr": "\"==\" compare two operants, \"is\" compare ids",
      "action_flag": 1,
      "change_message": "[{\"added\": {}}]"
    }
  },
  {
    "model": "admin.logentry",
    "pk": 11,
    "fields": {
      "action_time": "2021-11-25T18:36:40.424Z",
      "user": 1,
      "content_type": 10,
      "object_id": "8",
      "object_repr": "I don`t know",
      "action_flag": 1,
      "change_message": "[{\"added\": {}}]"
    }
  },
  {
    "model": "admin.logentry",
    "pk": 12,
    "fields": {
      "action_time": "2021-11-25T18:36:44.704Z",
      "user": 1,
      "content_type": 10,
      "object_id": "7",
      "object_repr": "\"==\" compare two operants, \"is\" compare ids",
      "action_flag": 2,
      "change_message": "[{\"changed\": {\"fields\": [\"Is correct\"]}}]"
    }
  },
  {
    "model": "admin.logentry",
    "pk": 13,
    "fields": {
      "action_time": "2021-11-28T18:47:44.308Z",
      "user": 1,
      "content_type": 7,
      "object_id": "2",
      "object_repr": "Django",
      "action_flag": 1,
      "change_message": "[{\"added\": {}}]"
    }
  },
  {
    "model": "admin.logentry",
    "pk": 14,
    "fields": {
      "action_time": "2021-11-28T18:48:06.894Z",
      "user": 1,
      "content_type": 7,
      "object_id": "3",
      "object_repr": "Celery",
      "action_flag": 1,
      "change_message": "[{\"added\": {}}]"
    }
  },
  {
    "model": "admin.logentry",
    "pk": 15,
    "fields": {
      "action_time": "2021-11-28T18:48:11.720Z",
      "user": 1,
      "content_type": 7,
      "object_id": "4",
      "object_repr": "Rabbit",
      "action_flag": 1,
      "change_message": "[{\"added\": {}}]"
    }
  },
  {
    "model": "admin.logentry",
    "pk": 16,
    "fields": {
      "action_time": "2021-11-29T18:40:05.599Z",
      "user": 1,
      "content_type": 8,
      "object_id": "2",
      "object_repr": "Result object (2)",
      "action_flag": 3,
      "change_message": ""
    }
  },
  {
    "model": "admin.logentry",
    "pk": 17,
    "fields": {
      "action_time": "2021-11-29T18:40:05.610Z",
      "user": 1,
      "content_type": 8,
      "object_id": "1",
      "object_repr": "Result object (1)",
      "action_flag": 3,
      "change_message": ""
    }
  },
  {
    "model": "admin.logentry",
    "pk": 18,
    "fields": {
      "action_time": "2021-11-29T18:41:29.911Z",
      "user": 1,
      "content_type": 9,
      "object_id": "3",
      "object_repr": "What is list comprehension",
      "action_flag": 1,
      "change_message": "[{\"added\": {}}]"
    }
  },
  {
    "model": "admin.logentry",
    "pk": 19,
    "fields": {
      "action_time": "2021-11-29T18:41:41.154Z",
      "user": 1,
      "content_type": 10,
      "object_id": "9",
      "object_repr": "{}",
      "action_flag": 1,
      "change_message": "[{\"added\": {}}]"
    }
  },
  {
    "model": "admin.logentry",
    "pk": 20,
    "fields": {
      "action_time": "2021-11-29T18:41:47.325Z",
      "user": 1,
      "content_type": 10,
      "object_id": "10",
      "object_repr": "[]",
      "action_flag": 1,
      "change_message": "[{\"added\": {}}]"
    }
  },
  {
    "model": "admin.logentry",
    "pk": 21,
    "fields": {
      "action_time": "2021-11-29T18:41:53.351Z",
      "user": 1,
      "content_type": 10,
      "object_id": "11",
      "object_repr": "||",
      "action_flag": 1,
      "change_message": "[{\"added\": {}}]"
    }
  },
  {
    "model": "admin.logentry",
    "pk": 22,
    "fields": {
      "action_time": "2021-11-29T18:41:59.693Z",
      "user": 1,
      "content_type": 10,
      "object_id": "12",
      "object_repr": "()",
      "action_flag": 1,
      "change_message": "[{\"added\": {}}]"
    }
  },
  {
    "model": "admin.logentry",
    "pk": 23,
    "fields": {
      "action_time": "2021-11-29T19:06:59.866Z",
      "user": 1,
      "content_type": 8,
      "object_id": "10",
      "object_repr": "Result object (10)",
      "action_flag": 3,
      "change_message": ""
    }
  },
  {
    "model": "admin.logentry",
    "pk": 24,
    "fields": {
      "action_time": "2021-11-29T19:06:59.877Z",
      "user": 1,
      "content_type": 8,
      "object_id": "9",
      "object_repr": "Result object (9)",
      "action_flag": 3,
      "change_message": ""
    }
  },
  {
    "model": "admin.logentry",
    "pk": 25,
    "fields": {
      "action_time": "2021-11-29T19:06:59.882Z",
      "user": 1,
      "content_type": 8,
      "object_id": "8",
      "object_repr": "Result object (8)",
      "action_flag": 3,
      "change_message": ""
    }
  },
  {
    "model": "admin.logentry",
    "pk": 26,
    "fields": {
      "action_time": "2021-11-29T19:06:59.889Z",
      "user": 1,
      "content_type": 8,
      "object_id": "7",
      "object_repr": "Result object (7)",
      "action_flag": 3,
      "change_message": ""
    }
  },
  {
    "model": "admin.logentry",
    "pk": 27,
    "fields": {
      "action_time": "2021-11-29T19:06:59.897Z",
      "user": 1,
      "content_type": 8,
      "object_id": "6",
      "object_repr": "Result object (6)",
      "action_flag": 3,
      "change_message": ""
    }
  },
  {
    "model": "admin.logentry",
    "pk": 28,
    "fields": {
      "action_time": "2021-11-29T19:06:59.908Z",
      "user": 1,
      "content_type": 8,
      "object_id": "5",
      "object_repr": "Result object (5)",
      "action_flag": 3,
      "change_message": ""
    }
  },
  {
    "model": "admin.logentry",
    "pk": 29,
    "fields": {
      "action_time": "2021-11-29T19:06:59.918Z",
      "user": 1,
      "content_type": 8,
      "object_id": "4",
      "object_repr": "Result object (4)",
      "action_flag": 3,
      "change_message": ""
    }
  },
  {
    "model": "admin.logentry",
    "pk": 30,
    "fields": {
      "action_time": "2021-11-29T19:06:59.923Z",
      "user": 1,
      "content_type": 8,
      "object_id": "3",
      "object_repr": "Result object (3)",
      "action_flag": 3,
      "change_message": ""
    }
  },
  {
    "model": "admin.logentry",
    "pk": 31,
    "fields": {
      "action_time": "2021-11-29T19:16:18.585Z",
      "user": 1,
      "content_type": 7,
      "object_id": "5",
      "object_repr": "Мій перший укр quiz",
      "action_flag": 1,
      "change_message": "[{\"added\": {}}]"
    }
  },
  {
    "model": "auth.permission",
    "pk": 1,
    "fields": {
      "name": "Can add log entry",
      "content_type": 1,
      "codename": "add_logentry"
    }
  },
  {
    "model": "auth.permission",
    "pk": 2,
    "fields": {
      "name": "Can change log entry",
      "content_type": 1,
      "codename": "change_logentry"
    }
  },
  {
    "model": "auth.permission",
    "pk": 3,
    "fields": {
      "name": "Can delete log entry",
      "content_type": 1,
      "codename": "delete_logentry"
    }
  },
  {
    "model": "auth.permission",
    "pk": 4,
    "fields": {
      "name": "Can view log entry",
      "content_type": 1,
      "codename": "view_logentry"
    }
  },
  {
    "model": "auth.permission",
    "pk": 5,
    "fields": {
      "name": "Can add permission",
      "content_type": 2,
      "codename": "add_permission"
    }
  },
  {
    "model": "auth.permission",
    "pk": 6,
    "fields": {
      "name": "Can change permission",
      "content_type": 2,
      "codename": "change_permission"
    }
  },
  {
    "model": "auth.permission",
    "pk": 7,
    "fields": {
      "name": "Can delete permission",
      "content_type": 2,
      "codename": "delete_permission"
    }
  },
  {
    "model": "auth.permission",
    "pk": 8,
    "fields": {
      "name": "Can view permission",
      "content_type": 2,
      "codename": "view_permission"
    }
  },
  {
    "model": "auth.permission",
    "pk": 9,
    "fields": {
      "name": "Can add group",
      "content_type": 3,
      "codename": "add_group"
    }
  },
  {
    "model": "auth.permission",
    "pk": 10,
    "fields": {
      "name": "Can change group",
      "content_type": 3,
      "codename": "change_group"
    }
  },
  {
    "model": "auth.permission",
    "pk": 11,
    "fields": {
      "name": "Can delete group",
      "content_type": 3,
      "codename": "delete_group"
    }
  },
  {
    "model": "auth.permission",
    "pk": 12,
    "fields": {
      "name": "Can view group",
      "content_type": 3,
      "codename": "view_group"
    }
  },
  {
    "model": "auth.permission",
    "pk": 13,
    "fields": {
      "name": "Can add content type",
      "content_type": 4,
      "codename": "add_contenttype"
    }
  },
  {
    "model": "auth.permission",
    "pk": 14,
    "fields": {
      "name": "Can change content type",
      "content_type": 4,
      "codename": "change_contenttype"
    }
  },
  {
    "model": "auth.permission",
    "pk": 15,
    "fields": {
      "name": "Can delete content type",
      "content_type": 4,
      "codename": "delete_contenttype"
    }
  },
  {
    "model": "auth.permission",
    "pk": 16,
    "fields": {
      "name": "Can view content type",
      "content_type": 4,
      "codename": "view_contenttype"
    }
  },
  {
    "model": "auth.permission",
    "pk": 17,
    "fields": {
      "name": "Can add session",
      "content_type": 5,
      "codename": "add_session"
    }
  },
  {
    "model": "auth.permission",
    "pk": 18,
    "fields": {
      "name": "Can change session",
      "content_type": 5,
      "codename": "change_session"
    }
  },
  {
    "model": "auth.permission",
    "pk": 19,
    "fields": {
      "name": "Can delete session",
      "content_type": 5,
      "codename": "delete_session"
    }
  },
  {
    "model": "auth.permission",
    "pk": 20,
    "fields": {
      "name": "Can view session",
      "content_type": 5,
      "codename": "view_session"
    }
  },
  {
    "model": "auth.permission",
    "pk": 21,
    "fields": {
      "name": "Can add user",
      "content_type": 6,
      "codename": "add_customuser"
    }
  },
  {
    "model": "auth.permission",
    "pk": 22,
    "fields": {
      "name": "Can change user",
      "content_type": 6,
      "codename": "change_customuser"
    }
  },
  {
    "model": "auth.permission",
    "pk": 23,
    "fields": {
      "name": "Can delete user",
      "content_type": 6,
      "codename": "delete_customuser"
    }
  },
  {
    "model": "auth.permission",
    "pk": 24,
    "fields": {
      "name": "Can view user",
      "content_type": 6,
      "codename": "view_customuser"
    }
  },
  {
    "model": "auth.permission",
    "pk": 25,
    "fields": {
      "name": "Can add quiz",
      "content_type": 7,
      "codename": "add_quiz"
    }
  },
  {
    "model": "auth.permission",
    "pk": 26,
    "fields": {
      "name": "Can change quiz",
      "content_type": 7,
      "codename": "change_quiz"
    }
  },
  {
    "model": "auth.permission",
    "pk": 27,
    "fields": {
      "name": "Can delete quiz",
      "content_type": 7,
      "codename": "delete_quiz"
    }
  },
  {
    "model": "auth.permission",
    "pk": 28,
    "fields": {
      "name": "Can view quiz",
      "content_type": 7,
      "codename": "view_quiz"
    }
  },
  {
    "model": "auth.permission",
    "pk": 29,
    "fields": {
      "name": "Can add result",
      "content_type": 8,
      "codename": "add_result"
    }
  },
  {
    "model": "auth.permission",
    "pk": 30,
    "fields": {
      "name": "Can change result",
      "content_type": 8,
      "codename": "change_result"
    }
  },
  {
    "model": "auth.permission",
    "pk": 31,
    "fields": {
      "name": "Can delete result",
      "content_type": 8,
      "codename": "delete_result"
    }
  },
  {
    "model": "auth.permission",
    "pk": 32,
    "fields": {
      "name": "Can view result",
      "content_type": 8,
      "codename": "view_result"
    }
  },
  {
    "model": "auth.permission",
    "pk": 33,
    "fields": {
      "name": "Can add question",
      "content_type": 9,
      "codename": "add_question"
    }
  },
  {
    "model": "auth.permission",
    "pk": 34,
    "fields": {
      "name": "Can change question",
      "content_type": 9,
      "codename": "change_question"
    }
  },
  {
    "model": "auth.permission",
    "pk": 35,
    "fields": {
      "name": "Can delete question",
      "content_type": 9,
      "codename": "delete_question"
    }
  },
  {
    "model": "auth.permission",
    "pk": 36,
    "fields": {
      "name": "Can view question",
      "content_type": 9,
      "codename": "view_question"
    }
  },
  {
    "model": "auth.permission",
    "pk": 37,
    "fields": {
      "name": "Can add choice",
      "content_type": 10,
      "codename": "add_choice"
    }
  },
  {
    "model": "auth.permission",
    "pk": 38,
    "fields": {
      "name": "Can change choice",
      "content_type": 10,
      "codename": "change_choice"
    }
  },
  {
    "model": "auth.permission",
    "pk": 39,
    "fields": {
      "name": "Can delete choice",
      "content_type": 10,
      "codename": "delete_choice"
    }
  },
  {
    "model": "auth.permission",
    "pk": 40,
    "fields": {
      "name": "Can view choice",
      "content_type": 10,
      "codename": "view_choice"
    }
  },
  {
    "model": "contenttypes.contenttype",
    "pk": 1,
    "fields": {
      "app_label": "admin",
      "model": "logentry"
    }
  },
  {
    "model": "contenttypes.contenttype",
    "pk": 2,
    "fields": {
      "app_label": "auth",
      "model": "permission"
    }
  },
  {
    "model": "contenttypes.contenttype",
    "pk": 3,
    "fields": {
      "app_label": "auth",
      "model": "group"
    }
  },
  {
    "model": "contenttypes.contenttype",
    "pk": 4,
    "fields": {
      "app_label": "contenttypes",
      "model": "contenttype"
    }
  },
  {
    "model": "contenttypes.contenttype",
    "pk": 5,
    "fields": {
      "app_label": "sessions",
      "model": "session"
    }
  },
  {
    "model": "contenttypes.contenttype",
    "pk": 6,
    "fields": {
      "app_label": "accounts",
      "model": "customuser"
    }
  },
  {
    "model": "contenttypes.contenttype",
    "pk": 7,
    "fields": {
      "app_label": "quiz",
      "model": "quiz"
    }
  },
  {
    "model": "contenttypes.contenttype",
    "pk": 8,
    "fields": {
      "app_label": "quiz",
      "model": "result"
    }
  },
  {
    "model": "contenttypes.contenttype",
    "pk": 9,
    "fields": {
      "app_label": "quiz",
      "model": "question"
    }
  },
  {
    "model": "contenttypes.contenttype",
    "pk": 10,
    "fields": {
      "app_label": "quiz",
      "model": "choice"
    }
  },
  {
    "model": "sessions.session",
    "pk": "av356xg44nw6kikar2e1la1cpwzbe5gt",
    "fields": {
      "session_data": ".eJxVjDsOwjAQBe_iGlneeP0JJT1nsHbXDg6gRIqTCnF3iJQC2jcz76USbWtNWytLGrM6K1Cn341JHmXaQb7TdJu1zNO6jKx3RR-06eucy_NyuH8HlVr91uyQhpKBw2B75N4Hhz5AlCLBg2U06NBFFPAdWaDYM2VLgNRJMWLU-wPaizeQ:1mqIbR:mp-9mYDeekLlJZt1YgZfWmZCEOpTAAt-BtojOTam4Hw",
      "expire_date": "2021-12-09T17:32:09.625Z"
    }
  },
  {
    "model": "sessions.session",
    "pk": "i14izmmo2sqd8e4tbugul68stiep5uyp",
    "fields": {
      "session_data": ".eJxVjEGOgzAMRe-S9YAwcXDocvZzBmQ7ptCiIBFYjebupRKLzva_99-vG_jYp-Eotg1zcjcH7utzE9an5TdID873tdY179ss9VupL1rqnzXZ8n25_wITl-l8S0AeLYHQ6HuUvqOAHUFUU-rACzYYMERU6Fr2wLEXTp4BuVVrtDmjm5Vj2Yc5l52z2hlVGANzggoocIXgoeJgWJEQMZHENnr39wI-FkgO:1mrm6E:wJcuRv2VQjkJkjazCWmjv9oi9ZEzfopqHTvfhFfTLD4",
      "expire_date": "2021-12-13T19:14:02.270Z"
    }
  },
  {
    "model": "sessions.session",
    "pk": "ts1e761vr8tcarvioenf4owkfbm3wmm8",
    "fields": {
      "session_data": ".eJxVjDsOwjAQBe_iGlneeP0JJT1nsHbXDg6gRIqTCnF3iJQC2jcz76USbWtNWytLGrM6K1Cn341JHmXaQb7TdJu1zNO6jKx3RR-06eucy_NyuH8HlVr91uyQhpKBw2B75N4Hhz5AlCLBg2U06NBFFPAdWaDYM2VLgNRJMWLU-wPaizeQ:1mrPCv:3E3fKX8rBFxCOuJIsk4hA-DNdZ-EfJAcKelrMgpJU8k",
      "expire_date": "2021-12-12T18:47:25.638Z"
    }
  },
  {
    "model": "accounts.customuser",
    "pk": 1,
    "fields": {
      "password": "pbkdf2_sha256$260000$Pwl8n96a03qWSksvhFdQTP$CVg1SdDnwxhJaFP5kQLa5BAuxyZFtJNOeglrvtUDKws=",
      "last_login": "2021-11-29T17:24:59.795Z",
      "is_superuser": true,
      "email": "admin@admin.com",
      "first_name": "",
      "last_name": "",
      "date_joined": "2021-11-25T17:31:57.732Z",
      "birthday": null,
      "grades": "",
      "title": "Quizer",
      "is_active": true,
      "photo": "",
      "is_staff": true,
      "groups": [],
      "user_permissions": []
    }
  },
  {
    "model": "quiz.quiz",
    "pk": 1,
    "fields": {
      "create_date": "2021-11-25T18:32:17.435Z",
      "last_update": "2021-11-25T18:32:17.435Z",
      "uuid": "ea8afd8e-a071-4260-9979-413833f83694",
      "level": 1,
      "title": "Python",
      "description": "Some basic question about Python",
      "image": "covers/Python.svg.png"
    }
  },
  {
    "model": "quiz.quiz",
    "pk": 2,
    "fields": {
      "create_date": "2021-11-28T18:47:44.305Z",
      "last_update": "2021-11-28T18:47:44.306Z",
      "uuid": "a38b64b3-a980-49fd-96c6-643cac8d5212",
      "level": 1,
      "title": "Django",
      "description": "dsa",
      "image": "covers/2156f4fee330937225d2f52d5c2bdf26.jpg"
    }
  },
  {
    "model": "quiz.quiz",
    "pk": 3,
    "fields": {
      "create_date": "2021-11-28T18:48:06.888Z",
      "last_update": "2021-11-28T18:48:06.888Z",
      "uuid": "f79543b9-2f57-48f4-abeb-b10db29d3740",
      "level": 1,
      "title": "Celery",
      "description": "",
      "image": "default.png"
    }
  },
  {
    "model": "quiz.quiz",
    "pk": 4,
    "fields": {
      "create_date": "2021-11-28T18:48:11.714Z",
      "last_update": "2021-11-28T18:48:11.714Z",
      "uuid": "0079f600-fd01-4743-a0c1-221b7466fd8d",
      "level": 1,
      "title": "Rabbit",
      "description": "",
      "image": "default.png"
    }
  },
  {
    "model": "quiz.quiz",
    "pk": 5,
    "fields": {
      "create_date": "2021-11-29T19:16:18.579Z",
      "last_update": "2021-11-29T19:16:18.579Z",
      "uuid": "424afe79-25b8-4e80-af8a-a12b925657f2",
      "level": 1,
      "title": "Мій перший укр quiz",
      "description": "Перший",
      "image": "default.png"
    }
  },
  {
    "model": "quiz.question",
    "pk": 1,
    "fields": {
      "create_date": "2021-11-25T18:32:32.239Z",
      "last_update": "2021-11-25T18:32:32.239Z",
      "quiz": 1,
      "order_number": 1,
      "text": "What is Python?"
    }
  },
  {
    "model": "quiz.question",
    "pk": 2,
    "fields": {
      "create_date": "2021-11-25T18:34:00.112Z",
      "last_update": "2021-11-25T18:34:00.112Z",
      "quiz": 1,
      "order_number": 2,
      "text": "Difference between \"==\" and \"is\"?"
    }
  },
  {
    "model": "quiz.question",
    "pk": 3,
    "fields": {
      "create_date": "2021-11-29T18:41:29.891Z",
      "last_update": "2021-11-29T18:41:29.891Z",
      "quiz": 1,
      "order_number": 3,
      "text": "What is list comprehension"
    }
  },
  {
    "model": "quiz.choice",
    "pk": 1,
    "fields": {
      "create_date": "2021-11-25T18:34:18.889Z",
      "last_update": "2021-11-25T18:34:18.889Z",
      "question": 1,
      "is_correct": false,
      "text": "LMS system"
    }
  },
  {
    "model": "quiz.choice",
    "pk": 2,
    "fields": {
      "create_date": "2021-11-25T18:34:35.205Z",
      "last_update": "2021-11-25T18:34:35.205Z",
      "question": 1,
      "is_correct": true,
      "text": "Programing language"
    }
  },
  {
    "model": "quiz.choice",
    "pk": 3,
    "fields": {
      "create_date": "2021-11-25T18:34:43.396Z",
      "last_update": "2021-11-25T18:34:43.396Z",
      "question": 1,
      "is_correct": false,
      "text": "Types of vars"
    }
  },
  {
    "model": "quiz.choice",
    "pk": 4,
    "fields": {
      "create_date": "2021-11-25T18:34:53.008Z",
      "last_update": "2021-11-25T18:34:53.008Z",
      "question": 1,
      "is_correct": false,
      "text": "I dont know"
    }
  },
  {
    "model": "quiz.choice",
    "pk": 5,
    "fields": {
      "create_date": "2021-11-25T18:35:07.172Z",
      "last_update": "2021-11-25T18:35:07.172Z",
      "question": 2,
      "is_correct": false,
      "text": "The same"
    }
  },
  {
    "model": "quiz.choice",
    "pk": 6,
    "fields": {
      "create_date": "2021-11-25T18:35:40.102Z",
      "last_update": "2021-11-25T18:35:40.102Z",
      "question": 2,
      "is_correct": false,
      "text": "Can`t compare"
    }
  },
  {
    "model": "quiz.choice",
    "pk": 7,
    "fields": {
      "create_date": "2021-11-25T18:36:23.076Z",
      "last_update": "2021-11-25T18:36:44.698Z",
      "question": 2,
      "is_correct": true,
      "text": "\"==\" compare two operants, \"is\" compare ids"
    }
  },
  {
    "model": "quiz.choice",
    "pk": 8,
    "fields": {
      "create_date": "2021-11-25T18:36:40.416Z",
      "last_update": "2021-11-25T18:36:40.416Z",
      "question": 2,
      "is_correct": false,
      "text": "I don`t know"
    }
  },
  {
    "model": "quiz.choice",
    "pk": 9,
    "fields": {
      "create_date": "2021-11-29T18:41:41.148Z",
      "last_update": "2021-11-29T18:41:41.148Z",
      "question": 3,
      "is_correct": false,
      "text": "{}"
    }
  },
  {
    "model": "quiz.choice",
    "pk": 10,
    "fields": {
      "create_date": "2021-11-29T18:41:47.324Z",
      "last_update": "2021-11-29T18:41:47.324Z",
      "question": 3,
      "is_correct": true,
      "text": "[]"
    }
  },
  {
    "model": "quiz.choice",
    "pk": 11,
    "fields": {
      "create_date": "2021-11-29T18:41:53.345Z",
      "last_update": "2021-11-29T18:41:53.345Z",
      "question": 3,
      "is_correct": false,
      "text": "||"
    }
  },
  {
    "model": "quiz.choice",
    "pk": 12,
    "fields": {
      "create_date": "2021-11-29T18:41:59.687Z",
      "last_update": "2021-11-29T18:41:59.687Z",
      "question": 3,
      "is_correct": false,
      "text": "()"
    }
  },
  {
    "model": "quiz.result",
    "pk": 11,
    "fields": {
      "create_date": "2021-11-29T19:07:10.059Z",
      "last_update": "2021-11-29T19:07:15.501Z",
      "quiz": 1,
      "user": 1,
      "state": 0,
      "uuid": "314512fd-1260-4bfc-aeb6-e42b14585bcc",
      "num_of_corrects_answers": 3
    }
  },
  {
    "model": "quiz.result",
    "pk": 12,
    "fields": {
      "create_date": "2021-11-29T19:11:01.817Z",
      "last_update": "2021-11-29T19:11:05.614Z",
      "quiz": 1,
      "user": 1,
      "state": 0,
      "uuid": "c0058da3-54f1-492f-b00a-e14952300839",
      "num_of_corrects_answers": 3
    }
  },
  {
    "model": "quiz.result",
    "pk": 13,
    "fields": {
      "create_date": "2021-11-29T19:11:58.424Z",
      "last_update": "2021-11-29T19:12:01.513Z",
      "quiz": 1,
      "user": 1,
      "state": 0,
      "uuid": "003c001a-4015-495d-801c-d7406651b190",
      "num_of_corrects_answers": 3
    }
  },
  {
    "model": "quiz.result",
    "pk": 14,
    "fields": {
      "create_date": "2021-11-29T19:14:02.250Z",
      "last_update": "2021-11-29T19:14:06.417Z",
      "quiz": 1,
      "user": 1,
      "state": 0,
      "uuid": "c1f5aad1-175a-4131-a5e4-7b77a77b8283",
      "num_of_corrects_answers": 3
    }
  }
]